 _____ _           ___  ___          _     _____                           
|_   _| |          |  \/  |         | |   /  ___|                          
  | | | |__   ___  | .  . | ___  ___| |_  \ `--.  ___  ___ _   _ _ __ ___  
  | | | '_ \ / _ \ | |\/| |/ _ \/ __| __|  `--. \/ _ \/ __| | | | '__/ _ \ 
  | | | | | |  __/ | |  | | (_) \__ \ |_  /\__/ /  __/ (__| |_| | | |  __/ 
  \_/ |_| |_|\___| \_|  |_/\___/|___/\__| \____/ \___|\___|\__,_|_|  \___| 
                                                                           
                                                                           
                     ______________  ___  _   _ _    _                     
                    |_   _| ___ \  \/  | | | | | |  | |                    
                      | | | |_/ / .  . | | |_| | |  | |                    
                      | | |  __/| |\/| | |  _  | |/\| |                    
                      | | | |   | |  | | | | | \  /\  /                    
                      \_/ \_|   \_|  |_/ \_| |_/\/  \/                     
                                                                           